[
    {
        "Quiz": 3,
        "NUMBER": "I-1",
        "ANS": "D"
    },
    {
        "Quiz": 3,
        "NUMBER": "I-2",
        "ANS": "D"
    },
    {
        "Quiz": 3,
        "NUMBER": "I-3",
        "ANS": "A"
    },
    {
        "Quiz": 3,
        "NUMBER": "I-4",
        "ANS": "A"
    },
    {
        "Quiz": 3,
        "NUMBER": "I-5",
        "ANS": "C"
    },
    {
        "Quiz": 3,
        "NUMBER": "II-1",
        "ANS": "A"
    },
    {
        "Quiz": 3,
        "NUMBER": "II-2",
        "ANS": "D"
    },
    {
        "Quiz": 3,
        "NUMBER": "II-3",
        "ANS": "B"
    },
    {
        "Quiz": 3,
        "NUMBER": "II-4",
        "ANS": "C"
    }, {
        "Quiz": 3,
        "NUMBER": "II-5",
        "ANS": "A"
    }
]




