{
    "Quiz": 8,
    "data": [
        {
            "TOPIC": "I. – Conservation of Angular Momentum:",
            "QUESTIONS": [
                {
                    "NUMBER": "I-1",
                    "QUESTION": "In the figure  at the top right  of the  first page  (1-1),  what  direction  would L be pointing?",
                    "ANSWERS": {
                        "A": "Right",
                        "B": "Left",
                        "C": "Out of page",
                        "D": "Into page"
                    }
                },
                {
                    "NUMBER": "I-2",
                    "QUESTION": "Which puck will you use to level the air-table?",
                    "ANSWERS": {
                        "A": "Magnetic",
                        "B": "Non-magnetic",
                        "C": "Both magnetic and non-magnetic",
                        "D": "No puck will be used for this lab"
                    }
                },
                {
                    "NUMBER": "I-3",
                    "QUESTION": ". For the first set of data analysis, where will you pick the origin of the coordinate system to be?",
                    "ANSWERS": {
                        "A": "At the center of the moving puck",
                        "B": "At the center of the stationary puck",
                        "C": "Botom left corner of the air table",
                        "D": "Top right corner of he air table"
                    }
                },
                {
                    "NUMBER": "I-4",
                    "QUESTION": "You will make two plots (on separate sheets of graph paper). What will the graphs be?",
                    "ANSWERS": {
                        "A": "Velocity vs. time",
                        "B": "Momentum vs. time",
                        "C": "Angular momentum vs. time",
                        "D": "both A and C"
                    }
                },
                {
                    "NUMBER": "I-5",
                    "QUESTION": " On a graph of L vs. t what is the physical interpretation of the slope of the graph?",
                    "ANSWERS": {
                        "A": "Velocity",
                        "B": "Momentum",
                        "C": "Force",
                        "D": "Torque"
                    }



                }
            ]
        }

    ]
}